{
    "Vue.js 3 Basic Template": {
        "prefix": "vuesfc",
        "body": [
            "<script setup lang=\"ts\">",
            "import { ref } from 'vue'",
            "const greeting = ref('Hello World!')",
            "</script>",
            "<template>",
            "  <p class=\"greeting\">{{ greeting }}</p>",
            "</template>",			
            "<style scoped>",
            ".greeting {",
            "  color: red;",
            "  font-weight: bold;",
            "}",
            "</style>"
        ],
        "description": "Single File Component with Composition API & Setup Syntax"
    },
    "Vue.js 3 Component": {
        "prefix": "vuecomp",
        "body": [
            "<template>",
            "  ${1}",
            "</template>",			
        ],
        "description": "Vue.js 3 Template"
    },
    "Axios Response": {
        "prefix": "axiosresp",
        "body": [
            "{ data: {}, status: 200, statusText: 'OK', headers: {}, config: {}, request: {} }"
        ],
        "description": "Axios response parameters schema"
    },
    "Axios GET": {
        "prefix": "axiosget",
        "body": [
            "const { status, data } = await axios.get('/endpoint/{id}')",
        ],
        "description": "Axios GET Example Request"
    },    
    "Axios POST": {
        "prefix": "axiospost",
        "body": [
            "const { status, data } = await axios.post('/endpoint', { username, email, password })",
        ],
        "description": "Axios POST Example Request"
    },
    "Console Log": {
        "prefix": "csl",
        "body": [
            "console.log(${1})"
        ],
        "description": "Console logs output"
    },
    "Console Log JSON": {
        "prefix": "cslj",
        "body": [
            "console.log(JSON.stringify(${1}, null, 2))"
        ],
        "description": "Console logs output with JSON Stringify"
    }   
}