{
    "editor.stickyScroll.enabled": false,
    "editor.tabSize": 2,
    "editor.fontFamily": "'JetBrainsMono Nerd Font', 'monospace', monospace, 'Droid Sans Fallback', 'Material Icons', 'Font Awesome 5 Free', 'Font Awesome 5 Free Solid', 'Font Awesome 5 Brands', 'JoyPixels'",
    "window.zoomLevel": 1.5,
    "editor.linkedEditing": true,
    "code-eol.newlineCharacter": "¬",
    "code-eol.returnCharacter": "¤",
    "code-eol.crlfCharacter": "¤¬",
    "explorer.confirmDelete": false,
    "git.enableSmartCommit": true,
    "git.confirmSync": false,
    "git.autofetch": true,
    "explorer.confirmDragAndDrop": false,
    "diffEditor.ignoreTrimWhitespace": false,
    "files.exclude": {
        "**/.commit*": true,
        "**/.editorconfig": true,
        "**/.prettierrc.json": true,
        "**/.styleci.yml": true,
        "**/tests": true
    },
    "window.menuBarVisibility": "toggle",
    "workbench.startupEditor": "none",
    "redhat.telemetry.enabled": true,
    "security.workspace.trust.untrustedFiles": "open",
    "vue.codeLens.enabled": false,
    "debug.javascript.codelens.npmScripts": "never",
    "git.postCommitCommand": "push",
    "workbench.tree.enableStickyScroll": false,
    "css.lint.unknownAtRules": "ignore",
    "scss.lint.unknownAtRules": "ignore",
    "npm.packageManager": "bun",
    "github.copilot.editor.enableAutoCompletions": true,
    "javascript.updateImportsOnFileMove.enabled": "never",
    "npm.scriptHover": false,
    "github.copilot.chat.localeOverride": "pt-br",
    "task.problemMatchers.neverPrompt": {
        "npm": true
    },
    "[vue]": {
        "editor.defaultFormatter": "Vue.volar"
    },
    "typescript.updateImportsOnFileMove.enabled": "never",
    "editor.fontSize": 12
}